<?xml version="1.0" encoding="UTF-8"?>
<session version="1.0">
<refactoring comment="Rename compilation unit &apos;FromInternet.ImageInput.java&apos; to &apos;ImageDemo.java&apos;&#x0D;&#x0A;- Original project: &apos;Collect&apos;&#x0D;&#x0A;- Original element: &apos;FromInternet.ImageInput.java&apos;&#x0D;&#x0A;- Renamed element: &apos;FromInternet.ImageDemo.java&apos;" description="Rename compilation unit &apos;ImageInput.java&apos;" flags="2" id="org.eclipse.jdt.ui.rename.compilationunit" input="/src&lt;FromInternet{ImageInput.java" name="ImageDemo.java" references="false" stamp="1489186642563" version="1.0"/>
</session>