<?xml version="1.0" encoding="UTF-8"?>
<session version="1.0">
<refactoring comment="Copy element &apos;Calculator3.java&apos; to &apos;Restruant_Almost_Done/src/viwe.panel&apos;&#x0D;&#x0A;- Original project: &apos;Calculator&apos;&#x0D;&#x0A;- Destination element: &apos;Restruant_Almost_Done/src/viwe.panel&apos;&#x0D;&#x0A;- Original element: &apos;calculator1.Calculator3.java&apos;" description="Copy compilation unit" destination="=Restruant_Almost_Done/src&lt;viwe.panel" element1="/src&lt;calculator1{Calculator3.java" files="0" flags="589830" folders="0" id="org.eclipse.jdt.ui.copy" policy="org.eclipse.jdt.ui.copyResources" stamp="1502644731121" units="1" version="1.0"/>
</session>