<?xml version="1.0" encoding="UTF-8"?>
<session version="1.0">
<refactoring comment="Rename type &apos;viwe.panel.DailyReports&apos; to &apos;WorkerReports&apos;&#x0D;&#x0A;- Original project: &apos;Restruant_Almost_Done&apos;&#x0D;&#x0A;- Original element: &apos;viwe.panel.DailyReports&apos;&#x0D;&#x0A;- Renamed element: &apos;viwe.panel.WorkerReports&apos;&#x0D;&#x0A;- Update references to refactored element&#x0D;&#x0A;- Rename similarly named elements&#x0D;&#x0A;- Update textual occurrences in comments and strings" description="Rename type &apos;DailyReports&apos;" flags="589830" id="org.eclipse.jdt.ui.rename.type" input="/src&lt;viwe.panel{DailyReports.java[DailyReports" matchStrategy="1" name="WorkerReports" qualified="false" references="true" similarDeclarations="true" stamp="1504280897884" textual="false" version="1.0"/>
</session>