<?xml version="1.0" encoding="UTF-8"?>
<session version="1.0">
<refactoring accessors="true" comment="Delete element from project &apos;AntiVirus&apos;&#x0D;&#x0A;- Original project: &apos;AntiVirus&apos;&#x0D;&#x0A;- Original element: &apos;Facebook like chat system Java project-[www.students3k.com]&apos;" description="Delete element" element1="Facebook like chat system Java project-[www.students3k.com]" elements="0" flags="589830" id="org.eclipse.jdt.ui.delete" resources="1" stamp="1502556105583" subPackages="false" version="1.0"/>
</session>