<?xml version="1.0" encoding="UTF-8"?>
<session version="1.0">
<refactoring accessors="true" comment="Delete element from project &apos;Restruant&apos;&#x0D;&#x0A;- Original project: &apos;Restruant&apos;&#x0D;&#x0A;- Original element: &apos;viwe.panel.MakeBill.java&apos;" description="Delete element" element1="/src&lt;viwe.panel{MakeBill.java" elements="1" flags="589830" id="org.eclipse.jdt.ui.delete" resources="0" stamp="1501089987025" subPackages="false" version="1.0"/>
</session>