<?xml version="1.0" encoding="UTF-8"?>
<session version="1.0">
<refactoring comment="Copy element &apos;About.java&apos; to &apos;ResturantMangement/src/viwe&apos;&#x0D;&#x0A;- Original project: &apos;RestruantManagement&apos;&#x0D;&#x0A;- Destination element: &apos;ResturantMangement/src/viwe&apos;&#x0D;&#x0A;- Original element: &apos;ResViwe.About.java&apos;" description="Copy compilation unit" destination="=ResturantMangement/src&lt;viwe" element1="/src&lt;ResViwe{About.java" files="0" flags="589830" folders="0" id="org.eclipse.jdt.ui.copy" policy="org.eclipse.jdt.ui.copyResources" stamp="1499446085003" units="1" version="1.0"/>
</session>