<?xml version="1.0" encoding="UTF-8"?>
<session version="1.0">
<refactoring comment="Rename compilation unit &apos;Hashmappractice.HashMap.java&apos; to &apos;HashMap_P.java&apos;&#x0D;&#x0A;- Original project: &apos;Database_connection&apos;&#x0D;&#x0A;- Original element: &apos;Hashmappractice.HashMap.java&apos;&#x0D;&#x0A;- Renamed element: &apos;Hashmappractice.HashMap_P.java&apos;" description="Rename compilation unit &apos;HashMap.java&apos;" flags="2" id="org.eclipse.jdt.ui.rename.compilationunit" input="/src&lt;Hashmappractice{HashMap.java" name="HashMap_P.java" references="false" stamp="1523175773014" version="1.0"/>
</session>