<?xml version="1.0" encoding="UTF-8"?>
<session version="1.0">
<refactoring comment="Rename resource &apos;problem/src/Problem/chair1600_60_60.jpg&apos; to &apos;c.jpg&apos;" description="Rename resource &apos;chair1600_60_60.jpg&apos;" flags="7" id="org.eclipse.ltk.core.refactoring.rename.resource" input="src/Problem/chair1600_60_60.jpg" name="c.jpg" stamp="1504117272354" updateReferences="true"/>
</session>