<?xml version="1.0" encoding="UTF-8"?>
<session version="1.0">
<refactoring accessors="true" comment="Delete element from project &apos;Converting_ArryListTo_String&apos;&#x0D;&#x0A;- Original project: &apos;Converting_ArryListTo_String&apos;&#x0D;&#x0A;- Original element: &apos;Converting_ArryListTo_String/src/snippet&apos;" description="Delete element" element1="/src&lt;snippet" elements="1" flags="589830" id="org.eclipse.jdt.ui.delete" resources="0" stamp="1494830675534" subPackages="false" version="1.0"/>
</session>