<?xml version="1.0" encoding="UTF-8"?>
<session version="1.0">
<refactoring accessors="true" comment="Delete element from project &apos;Jurnul&apos;&#x0D;&#x0A;- Original project: &apos;Jurnul&apos;&#x0D;&#x0A;- Original element: &apos;Jurnul/src/Ac_info&apos;" description="Delete element" element1="/src&lt;Ac_info" elements="1" flags="589830" id="org.eclipse.jdt.ui.delete" resources="0" stamp="1490338795373" subPackages="false" version="1.0"/>
</session>