<?xml version="1.0" encoding="UTF-8"?>
<session version="1.0">
<refactoring accessors="true" comment="Delete element from project &apos;ShopManagement_new&apos;&#x0D;&#x0A;- Original project: &apos;ShopManagement_new&apos;&#x0D;&#x0A;- Original element: &apos;ShopManagement_new/src/java.awt.event&apos;" description="Delete element" element1="/src&lt;java.awt.event" element2="/src&lt;java.awt" element3="/src&lt;java" elements="3" flags="589830" id="org.eclipse.jdt.ui.delete" resources="0" stamp="1494049947648" subPackages="false" version="1.0"/>
</session>