<?xml version="1.0" encoding="UTF-8"?>
<session version="1.0">
<refactoring comment="Rename compilation unit &apos;AntiviRus.Virus.java&apos; to &apos;AntivirusAlgoInJava.java&apos;&#x0D;&#x0A;- Original project: &apos;AntiVirus&apos;&#x0D;&#x0A;- Original element: &apos;AntiviRus.Virus.java&apos;&#x0D;&#x0A;- Renamed element: &apos;AntiviRus.AntivirusAlgoInJava.java&apos;" description="Rename compilation unit &apos;Virus.java&apos;" flags="2" id="org.eclipse.jdt.ui.rename.compilationunit" input="/src&lt;AntiviRus{Virus.java" name="AntivirusAlgoInJava.java" references="false" stamp="1501490919183" version="1.0"/>
</session>