<?xml version="1.0" encoding="UTF-8"?>
<session version="1.0">
<refactoring comment="Copy element &apos;login.java&apos; to &apos;RM/src/SequrityPak&apos;&#x0D;&#x0A;- Original project: &apos;RemoteSystemsTempFiles&apos;&#x0D;&#x0A;- Destination element: &apos;RM/src/SequrityPak&apos;&#x0D;&#x0A;- Original element: &apos;login.java&apos;" description="Copy file" destination="=RM/src&lt;SequrityPak" element1="Shiping/shipping/src/shipping/login.java" files="1" flags="589830" folders="0" id="org.eclipse.jdt.ui.copy" policy="org.eclipse.jdt.ui.copyResources" stamp="1500100093085" units="0" version="1.0"/>
</session>